Introduction to R
…
## # A tibble: 5 x 8
##   species island bill_length_mm bill_depth_mm flipper_length_~ body_mass_g sex  
##   <fct>   <fct>           <dbl>         <dbl>            <int>       <int> <fct>
## 1 <NA>    <NA>             NA            NA                 NA          NA <NA> 
## 2 <NA>    <NA>             NA            NA                 NA          NA <NA> 
## 3 Chinst~ Dream            58            17.8              181        3700 fema~
## 4 Chinst~ Dream            54.2          20.8              201        4300 male 
## 5 Chinst~ Dream            55.8          19.8              207        4000 male 
## # ... with 1 more variable: year <int>

#you can do all BUT
penguins[ , -1]

## # A tibble: 344 x 7
##    island  bill_length_mm bill_depth_mm flipper_length_~ body_mass_g sex    year
##    <fct>            <dbl>         <dbl>            <int>       <int> <fct> <int>
##  1 Torger~           39.1          18.7              181        3750 male   2007
##  2 Torger~           39.5          17.4              186        3800 fema~  2007
##  3 Torger~           40.3          18                195        3250 fema~  2007
##  4 Torger~           NA            NA                 NA          NA <NA>   2007
##  5 Torger~           36.7          19.3              193        3450 fema~  2007
##  6 Torger~           39.3          20.6              190        3650 male   2007
##  7 Torger~           38.9          17.8              181        3625 fema~  2007
##  8 Torger~           39.2          19.6              195        4675 male   2007
##  9 Torger~           34.1          18.1              193        3475 <NA>   2007
## 10 Torger~           42            20.2              190        4250 <NA>   2007
## # ... with 334 more rows

#grab a few columns by name
vars <- c("bill_length_mm", "sex")
penguins[ , vars]

## # A tibble: 344 x 2
##    bill_length_mm sex   
##             <dbl> <fct> 
##  1           39.1 male  
##  2           39.5 female
##  3           40.3 female
##  4           NA   <NA>  
##  5           36.7 female
##  6           39.3 male  
##  7           38.9 female
##  8           39.2 male  
##  9           34.1 <NA>  
## 10           42   <NA>  
## # ... with 334 more rows
…
